PWD /home/mn/d2l/sabook/_build/pdf
INPUT /etc/texmf/web2c/texmf.cnf
INPUT /usr/share/texmf/web2c/texmf.cnf
INPUT /usr/share/texlive/texmf-dist/web2c/texmf.cnf
INPUT /var/lib/texmf/web2c/xetex/xelatex.fmt
INPUT sabook.tex
OUTPUT sabook.log
INPUT sphinxmanual.cls
INPUT sphinxmanual.cls
INPUT /usr/share/texlive/texmf-dist/tex/latex/base/report.cls
INPUT /usr/share/texlive/texmf-dist/tex/latex/base/report.cls
INPUT /usr/share/texlive/texmf-dist/tex/latex/base/size11.clo
INPUT /usr/share/texlive/texmf-dist/tex/latex/base/size11.clo
INPUT /usr/share/texlive/texmf-dist/tex/latex/cmap/cmap.sty
INPUT /usr/share/texlive/texmf-dist/tex/latex/cmap/cmap.sty
INPUT /usr/share/texlive/texmf-dist/tex/latex/fontspec/fontspec.sty
INPUT /usr/share/texlive/texmf-dist/tex/latex/fontspec/fontspec.sty
INPUT /usr/share/texlive/texmf-dist/tex/latex/l3packages/xparse/xparse.sty
INPUT /usr/share/texlive/texmf-dist/tex/latex/l3packages/xparse/xparse.sty
INPUT /usr/share/texlive/texmf-dist/tex/latex/l3kernel/expl3.sty
INPUT /usr/share/texlive/texmf-dist/tex/latex/l3kernel/expl3.sty
INPUT /usr/share/texlive/texmf-dist/tex/latex/l3backend/l3backend-xdvipdfmx.def
INPUT /usr/share/texlive/texmf-dist/tex/latex/l3backend/l3backend-xdvipdfmx.def
INPUT /usr/share/texlive/texmf-dist/tex/latex/fontspec/fontspec-xetex.sty
INPUT /usr/share/texlive/texmf-dist/tex/latex/fontspec/fontspec-xetex.sty
INPUT /usr/share/texlive/texmf-dist/tex/latex/base/tuenc.def
INPUT /usr/share/texlive/texmf-dist/tex/latex/base/fontenc.sty
INPUT /usr/share/texlive/texmf-dist/tex/latex/base/fontenc.sty
INPUT /usr/share/texlive/texmf-dist/tex/latex/fontspec/fontspec.cfg
INPUT /usr/share/texlive/texmf-dist/tex/latex/fontspec/fontspec.cfg
INPUT /usr/share/texlive/texmf-dist/tex/latex/amsmath/amsmath.sty
INPUT /usr/share/texlive/texmf-dist/tex/latex/amsmath/amsmath.sty
INPUT /usr/share/texlive/texmf-dist/tex/latex/amsmath/amstext.sty
INPUT /usr/share/texlive/texmf-dist/tex/latex/amsmath/amstext.sty
INPUT /usr/share/texlive/texmf-dist/tex/latex/amsmath/amsgen.sty
INPUT /usr/share/texlive/texmf-dist/tex/latex/amsmath/amsgen.sty
INPUT /usr/share/texlive/texmf-dist/tex/latex/amsmath/amsbsy.sty
INPUT /usr/share/texlive/texmf-dist/tex/latex/amsmath/amsbsy.sty
INPUT /usr/share/texlive/texmf-dist/tex/latex/amsmath/amsopn.sty
INPUT /usr/share/texlive/texmf-dist/tex/latex/amsmath/amsopn.sty
INPUT /usr/share/texlive/texmf-dist/tex/latex/amsfonts/amssymb.sty
INPUT /usr/share/texlive/texmf-dist/tex/latex/amsfonts/amssymb.sty
INPUT /usr/share/texlive/texmf-dist/tex/latex/amsfonts/amsfonts.sty
INPUT /usr/share/texlive/texmf-dist/tex/latex/amsfonts/amsfonts.sty
INPUT /usr/share/texlive/texmf-dist/tex/latex/polyglossia/polyglossia.sty
INPUT /usr/share/texlive/texmf-dist/tex/latex/polyglossia/polyglossia.sty
INPUT /usr/share/texlive/texmf-dist/tex/latex/etoolbox/etoolbox.sty
INPUT /usr/share/texlive/texmf-dist/tex/latex/etoolbox/etoolbox.sty
INPUT /usr/share/texlive/texmf-dist/tex/latex/makecmds/makecmds.sty
INPUT /usr/share/texlive/texmf-dist/tex/latex/makecmds/makecmds.sty
INPUT /usr/share/texlive/texmf-dist/tex/latex/xkeyval/xkeyval.sty
INPUT /usr/share/texlive/texmf-dist/tex/latex/xkeyval/xkeyval.sty
INPUT /usr/share/texlive/texmf-dist/tex/generic/xkeyval/xkeyval.tex
INPUT /usr/share/texlive/texmf-dist/tex/generic/xkeyval/xkvutils.tex
INPUT /usr/share/texlive/texmf-dist/tex/generic/xkeyval/keyval.tex
INPUT /usr/share/texlive/texmf-dist/tex/generic/iftex/ifluatex.sty
INPUT /usr/share/texlive/texmf-dist/tex/generic/iftex/ifluatex.sty
INPUT /usr/share/texlive/texmf-dist/tex/generic/iftex/iftex.sty
INPUT /usr/share/texlive/texmf-dist/tex/generic/iftex/iftex.sty
INPUT /usr/share/texlive/texmf-dist/tex/generic/iftex/ifxetex.sty
INPUT /usr/share/texlive/texmf-dist/tex/generic/iftex/ifxetex.sty
INPUT /usr/share/texlive/texmf-dist/tex/latex/l3packages/l3keys2e/l3keys2e.sty
INPUT /usr/share/texlive/texmf-dist/tex/latex/l3packages/l3keys2e/l3keys2e.sty
INPUT /usr/share/texlive/texmf-dist/tex/latex/filehook/filehook.sty
INPUT /usr/share/texlive/texmf-dist/tex/latex/filehook/filehook.sty
INPUT /usr/share/texlive/texmf-dist/tex/latex/polyglossia/gloss-latex.ldf
INPUT /usr/share/texlive/texmf-dist/tex/latex/polyglossia/gloss-latex.ldf
INPUT /usr/share/texlive/texmf-dist/tex/latex/polyglossia/gloss-latex.ldf
INPUT /usr/share/texlive/texmf-dist/tex/latex/polyglossia/gloss-english.ldf
INPUT /usr/share/texlive/texmf-dist/tex/latex/polyglossia/gloss-english.ldf
INPUT /usr/share/texlive/texmf-dist/tex/latex/polyglossia/gloss-english.ldf
INPUT /usr/share/texlive/texmf-dist/tex/latex/fncychap/fncychap.sty
INPUT /usr/share/texlive/texmf-dist/tex/latex/fncychap/fncychap.sty
INPUT sphinx.sty
INPUT sphinx.sty
INPUT /usr/share/texlive/texmf-dist/tex/generic/ltxcmds/ltxcmds.sty
INPUT /usr/share/texlive/texmf-dist/tex/generic/ltxcmds/ltxcmds.sty
INPUT /usr/share/texlive/texmf-dist/tex/latex/graphics/graphicx.sty
INPUT /usr/share/texlive/texmf-dist/tex/latex/graphics/graphicx.sty
INPUT /usr/share/texlive/texmf-dist/tex/latex/graphics/graphics.sty
INPUT /usr/share/texlive/texmf-dist/tex/latex/graphics/graphics.sty
INPUT /usr/share/texlive/texmf-dist/tex/latex/graphics/trig.sty
INPUT /usr/share/texlive/texmf-dist/tex/latex/graphics/trig.sty
INPUT /usr/share/texlive/texmf-dist/tex/latex/graphics-cfg/graphics.cfg
INPUT /usr/share/texlive/texmf-dist/tex/latex/graphics-cfg/graphics.cfg
INPUT /usr/share/texlive/texmf-dist/tex/latex/graphics-def/xetex.def
INPUT /usr/share/texlive/texmf-dist/tex/latex/graphics-def/xetex.def
INPUT /usr/share/texlive/texmf-dist/tex/latex/fancyhdr/fancyhdr.sty
INPUT /usr/share/texlive/texmf-dist/tex/latex/fancyhdr/fancyhdr.sty
INPUT /usr/share/texlive/texmf-dist/tex/latex/base/textcomp.sty
INPUT /usr/share/texlive/texmf-dist/tex/latex/base/textcomp.sty
INPUT /usr/share/texlive/texmf-dist/tex/latex/titlesec/titlesec.sty
INPUT /usr/share/texlive/texmf-dist/tex/latex/titlesec/titlesec.sty
INPUT /usr/share/texlive/texmf-dist/tex/latex/tabulary/tabulary.sty
INPUT /usr/share/texlive/texmf-dist/tex/latex/tabulary/tabulary.sty
INPUT /usr/share/texlive/texmf-dist/tex/latex/tools/array.sty
INPUT /usr/share/texlive/texmf-dist/tex/latex/tools/array.sty
INPUT /usr/share/texlive/texmf-dist/tex/latex/tools/longtable.sty
INPUT /usr/share/texlive/texmf-dist/tex/latex/tools/longtable.sty
INPUT /usr/share/texlive/texmf-dist/tex/latex/varwidth/varwidth.sty
INPUT /usr/share/texlive/texmf-dist/tex/latex/varwidth/varwidth.sty
INPUT sphinxmulticell.sty
INPUT sphinxmulticell.sty
INPUT /usr/share/texlive/texmf-dist/tex/latex/base/makeidx.sty
INPUT /usr/share/texlive/texmf-dist/tex/latex/base/makeidx.sty
INPUT /usr/share/texlive/texmf-dist/tex/latex/framed/framed.sty
INPUT /usr/share/texlive/texmf-dist/tex/latex/framed/framed.sty
INPUT /usr/share/texlive/texmf-dist/tex/latex/xcolor/xcolor.sty
INPUT /usr/share/texlive/texmf-dist/tex/latex/xcolor/xcolor.sty
INPUT /usr/share/texlive/texmf-dist/tex/latex/xcolor/xcolor.sty
INPUT /usr/share/texlive/texmf-dist/tex/latex/graphics-cfg/color.cfg
INPUT /usr/share/texlive/texmf-dist/tex/latex/graphics-cfg/color.cfg
INPUT /usr/share/texlive/texmf-dist/tex/latex/fancyvrb/fancyvrb.sty
INPUT /usr/share/texlive/texmf-dist/tex/latex/fancyvrb/fancyvrb.sty
INPUT footnotehyper-sphinx.sty
INPUT footnotehyper-sphinx.sty
INPUT /usr/share/texlive/texmf-dist/tex/latex/float/float.sty
INPUT /usr/share/texlive/texmf-dist/tex/latex/float/float.sty
INPUT /usr/share/texlive/texmf-dist/tex/latex/wrapfig/wrapfig.sty
INPUT /usr/share/texlive/texmf-dist/tex/latex/wrapfig/wrapfig.sty
INPUT /usr/share/texlive/texmf-dist/tex/latex/parskip/parskip-2001-04-09.sty
INPUT /usr/share/texlive/texmf-dist/tex/latex/parskip/parskip.sty
INPUT /usr/share/texlive/texmf-dist/tex/latex/parskip/parskip.sty
INPUT /usr/share/texlive/texmf-dist/tex/latex/parskip/parskip-2001-04-09.sty
INPUT /usr/share/texlive/texmf-dist/tex/latex/base/alltt.sty
INPUT /usr/share/texlive/texmf-dist/tex/latex/base/alltt.sty
INPUT /usr/share/texlive/texmf-dist/tex/latex/upquote/upquote.sty
INPUT /usr/share/texlive/texmf-dist/tex/latex/upquote/upquote.sty
INPUT /usr/share/texlive/texmf-dist/tex/latex/capt-of/capt-of.sty
INPUT /usr/share/texlive/texmf-dist/tex/latex/capt-of/capt-of.sty
INPUT /usr/share/texlive/texmf-dist/tex/latex/needspace/needspace.sty
INPUT /usr/share/texlive/texmf-dist/tex/latex/needspace/needspace.sty
INPUT sphinxhighlight.sty
INPUT sphinxhighlight.sty
INPUT /usr/share/texlive/texmf-dist/tex/latex/kvoptions/kvoptions.sty
INPUT /usr/share/texlive/texmf-dist/tex/latex/kvoptions/kvoptions.sty
INPUT /usr/share/texlive/texmf-dist/tex/generic/kvsetkeys/kvsetkeys.sty
INPUT /usr/share/texlive/texmf-dist/tex/generic/kvsetkeys/kvsetkeys.sty
INPUT /usr/share/texlive/texmf-dist/tex/latex/geometry/geometry.sty
INPUT /usr/share/texlive/texmf-dist/tex/latex/geometry/geometry.sty
INPUT /usr/share/texlive/texmf-dist/tex/generic/iftex/ifvtex.sty
INPUT /usr/share/texlive/texmf-dist/tex/generic/iftex/ifvtex.sty
INPUT /usr/share/texlive/texmf-dist/tex/latex/hyperref/hyperref.sty
INPUT /usr/share/texlive/texmf-dist/tex/latex/hyperref/hyperref.sty
INPUT /usr/share/texlive/texmf-dist/tex/latex/pdftexcmds/pdftexcmds.sty
INPUT /usr/share/texlive/texmf-dist/tex/latex/pdftexcmds/pdftexcmds.sty
INPUT /usr/share/texlive/texmf-dist/tex/generic/infwarerr/infwarerr.sty
INPUT /usr/share/texlive/texmf-dist/tex/generic/infwarerr/infwarerr.sty
INPUT /usr/share/texlive/texmf-dist/tex/generic/kvdefinekeys/kvdefinekeys.sty
INPUT /usr/share/texlive/texmf-dist/tex/generic/kvdefinekeys/kvdefinekeys.sty
INPUT /usr/share/texlive/texmf-dist/tex/generic/pdfescape/pdfescape.sty
INPUT /usr/share/texlive/texmf-dist/tex/generic/pdfescape/pdfescape.sty
INPUT /usr/share/texlive/texmf-dist/tex/latex/hycolor/hycolor.sty
INPUT /usr/share/texlive/texmf-dist/tex/latex/hycolor/hycolor.sty
INPUT /usr/share/texlive/texmf-dist/tex/latex/letltxmacro/letltxmacro.sty
INPUT /usr/share/texlive/texmf-dist/tex/latex/letltxmacro/letltxmacro.sty
INPUT /usr/share/texlive/texmf-dist/tex/latex/auxhook/auxhook.sty
INPUT /usr/share/texlive/texmf-dist/tex/latex/auxhook/auxhook.sty
INPUT /usr/share/texlive/texmf-dist/tex/latex/hyperref/pd1enc.def
INPUT /usr/share/texlive/texmf-dist/tex/latex/hyperref/pd1enc.def
INPUT /usr/share/texlive/texmf-dist/tex/generic/intcalc/intcalc.sty
INPUT /usr/share/texlive/texmf-dist/tex/generic/intcalc/intcalc.sty
INPUT /usr/share/texlive/texmf-dist/tex/generic/etexcmds/etexcmds.sty
INPUT /usr/share/texlive/texmf-dist/tex/generic/etexcmds/etexcmds.sty
INPUT /usr/share/texlive/texmf-dist/tex/latex/hyperref/puenc.def
INPUT /usr/share/texlive/texmf-dist/tex/latex/hyperref/puenc.def
INPUT /usr/share/texlive/texmf-dist/tex/latex/url/url.sty
INPUT /usr/share/texlive/texmf-dist/tex/latex/url/url.sty
INPUT /usr/share/texlive/texmf-dist/fonts/map/fontname/texfonts.map
INPUT /usr/share/texlive/texmf-dist/fonts/tfm/adobe/zapfding/pzdr.tfm
INPUT /usr/share/texlive/texmf-dist/tex/generic/bitset/bitset.sty
INPUT /usr/share/texlive/texmf-dist/tex/generic/bitset/bitset.sty
INPUT /usr/share/texlive/texmf-dist/tex/generic/bigintcalc/bigintcalc.sty
INPUT /usr/share/texlive/texmf-dist/tex/generic/bigintcalc/bigintcalc.sty
INPUT /usr/share/texlive/texmf-dist/tex/generic/atbegshi/atbegshi.sty
INPUT /usr/share/texlive/texmf-dist/tex/generic/atbegshi/atbegshi.sty
INPUT /usr/share/texlive/texmf-dist/tex/latex/hyperref/hxetex.def
INPUT /usr/share/texlive/texmf-dist/tex/latex/hyperref/hxetex.def
INPUT /usr/share/texlive/texmf-dist/tex/generic/stringenc/stringenc.sty
INPUT /usr/share/texlive/texmf-dist/tex/generic/stringenc/stringenc.sty
INPUT /usr/share/texlive/texmf-dist/tex/latex/rerunfilecheck/rerunfilecheck.sty
INPUT /usr/share/texlive/texmf-dist/tex/latex/rerunfilecheck/rerunfilecheck.sty
INPUT /usr/share/texlive/texmf-dist/tex/latex/atveryend/atveryend.sty
INPUT /usr/share/texlive/texmf-dist/tex/latex/atveryend/atveryend.sty
INPUT /usr/share/texlive/texmf-dist/tex/generic/uniquecounter/uniquecounter.sty
INPUT /usr/share/texlive/texmf-dist/tex/generic/uniquecounter/uniquecounter.sty
INPUT /usr/share/texlive/texmf-dist/tex/latex/oberdiek/hypcap.sty
INPUT /usr/share/texlive/texmf-dist/tex/latex/oberdiek/hypcap.sty
INPUT sphinxmessages.sty
INPUT sphinxmessages.sty
INPUT /usr/share/texlive/texmf-dist/tex/latex/blindtext/blindtext.sty
INPUT /usr/share/texlive/texmf-dist/tex/latex/blindtext/blindtext.sty
INPUT /usr/share/texlive/texmf-dist/tex/latex/tools/xspace.sty
INPUT /usr/share/texlive/texmf-dist/tex/latex/tools/xspace.sty
INPUT /usr/share/texlive/texmf-dist/tex/latex/natbib/natbib.sty
INPUT /usr/share/texlive/texmf-dist/tex/latex/natbib/natbib.sty
INPUT /usr/share/texlive/texmf-dist/tex/latex/minted/minted.sty
INPUT /usr/share/texlive/texmf-dist/tex/latex/minted/minted.sty
INPUT /usr/share/texlive/texmf-dist/tex/latex/fvextra/fvextra.sty
INPUT /usr/share/texlive/texmf-dist/tex/latex/fvextra/fvextra.sty
INPUT /usr/share/texlive/texmf-dist/tex/latex/base/ifthen.sty
INPUT /usr/share/texlive/texmf-dist/tex/latex/base/ifthen.sty
INPUT /usr/share/texlive/texmf-dist/tex/latex/lineno/lineno.sty
INPUT /usr/share/texlive/texmf-dist/tex/latex/lineno/lineno.sty
INPUT /usr/share/texlive/texmf-dist/tex/latex/tools/calc.sty
INPUT /usr/share/texlive/texmf-dist/tex/latex/tools/calc.sty
INPUT /usr/share/texlive/texmf-dist/tex/latex/tools/shellesc.sty
INPUT /usr/share/texlive/texmf-dist/tex/latex/tools/shellesc.sty
INPUT /usr/share/texlive/texmf-dist/tex/latex/tools/shellesc.sty
INPUT /usr/share/texlive/texmf-dist/tex/latex/ifplatform/ifplatform.sty
INPUT /usr/share/texlive/texmf-dist/tex/latex/ifplatform/ifplatform.sty
INPUT /usr/share/texlive/texmf-dist/tex/generic/catchfile/catchfile.sty
INPUT /usr/share/texlive/texmf-dist/tex/generic/catchfile/catchfile.sty
INPUT /dev/null
INPUT /usr/share/texlive/texmf-dist/tex/generic/xstring/xstring.sty
INPUT /usr/share/texlive/texmf-dist/tex/generic/xstring/xstring.sty
INPUT /usr/share/texlive/texmf-dist/tex/generic/xstring/xstring.tex
OUTPUT sabook.idx
INPUT sabook.aux
INPUT sabook.aux
OUTPUT sabook.aux
INPUT /usr/share/texlive/texmf-dist/tex/latex/base/ts1cmr.fd
INPUT /usr/share/texlive/texmf-dist/tex/latex/base/ts1cmr.fd
INPUT /usr/share/texlive/texmf-dist/tex/latex/hyperref/nameref.sty
INPUT /usr/share/texlive/texmf-dist/tex/latex/hyperref/nameref.sty
INPUT /usr/share/texlive/texmf-dist/tex/latex/refcount/refcount.sty
INPUT /usr/share/texlive/texmf-dist/tex/latex/refcount/refcount.sty
INPUT /usr/share/texlive/texmf-dist/tex/generic/gettitlestring/gettitlestring.sty
INPUT /usr/share/texlive/texmf-dist/tex/generic/gettitlestring/gettitlestring.sty
INPUT sabook.out
INPUT sabook.out
INPUT sabook.out
INPUT sabook.out
INPUT ./sabook.out
INPUT ./sabook.out
OUTPUT sabook.out
INPUT /usr/share/texlive/texmf-dist/fonts/tfm/public/cm/cmmi12.tfm
INPUT /usr/share/texlive/texmf-dist/fonts/tfm/public/cm/cmmi12.tfm
INPUT /usr/share/texlive/texmf-dist/fonts/tfm/public/cm/cmsy10.tfm
INPUT /usr/share/texlive/texmf-dist/fonts/tfm/public/cm/cmsy10.tfm
INPUT /usr/share/texlive/texmf-dist/fonts/tfm/public/cm/cmex10.tfm
INPUT /usr/share/texlive/texmf-dist/fonts/tfm/public/cm/cmex10.tfm
INPUT /usr/share/texlive/texmf-dist/tex/latex/amsfonts/umsa.fd
INPUT /usr/share/texlive/texmf-dist/tex/latex/amsfonts/umsa.fd
INPUT /usr/share/texlive/texmf-dist/fonts/tfm/public/amsfonts/symbols/msam10.tfm
INPUT /usr/share/texlive/texmf-dist/fonts/tfm/public/amsfonts/symbols/msam10.tfm
INPUT /usr/share/texlive/texmf-dist/fonts/tfm/public/amsfonts/symbols/msam10.tfm
INPUT /usr/share/texlive/texmf-dist/tex/latex/amsfonts/umsb.fd
INPUT /usr/share/texlive/texmf-dist/tex/latex/amsfonts/umsb.fd
INPUT /usr/share/texlive/texmf-dist/fonts/tfm/public/amsfonts/symbols/msbm10.tfm
INPUT /usr/share/texlive/texmf-dist/fonts/tfm/public/amsfonts/symbols/msbm10.tfm
INPUT /usr/share/texlive/texmf-dist/fonts/tfm/public/amsfonts/symbols/msbm10.tfm
INPUT /usr/share/texlive/texmf-dist/fonts/tfm/public/cm/cmr17.tfm
INPUT /usr/share/texlive/texmf-dist/fonts/tfm/public/cm/cmr12.tfm
INPUT sabook.toc
INPUT sabook.toc
OUTPUT sabook.toc
INPUT sabook.ind
INPUT sabook.ind
INPUT sabook.aux
INPUT ./sabook.out
INPUT ./sabook.out
